%YAML 1.1
%TAG !u! tag:unity3d.com,2011:
--- !u!29 &1
OcclusionCullingSettings:
  m_ObjectHideFlags: 0
  serializedVersion: 2
  m_OcclusionBakeSettings:
    smallestOccluder: 5
    smallestHole: 0.25
    backfaceThreshold: 100
  m_SceneGUID: 00000000000000000000000000000000
  m_OcclusionCullingData: {fileID: 0}
--- !u!104 &2
RenderSettings:
  m_ObjectHideFlags: 0
  serializedVersion: 9
  m_Fog: 0
  m_FogColor: {r: 0.5, g: 0.5, b: 0.5, a: 1}
  m_FogMode: 3
  m_FogDensity: 0.01
  m_LinearFogStart: 0
  m_LinearFogEnd: 300
  m_AmbientSkyColor: {r: 0.212, g: 0.227, b: 0.259, a: 1}
  m_AmbientEquatorColor: {r: 0.114, g: 0.125, b: 0.133, a: 1}
  m_AmbientGroundColor: {r: 0.047, g: 0.043, b: 0.035, a: 1}
  m_AmbientIntensity: 1
  m_AmbientMode: 0
  m_SubtractiveShadowColor: {r: 0.42, g: 0.478, b: 0.627, a: 1}
  m_SkyboxMaterial: {fileID: 10304, guid: 0000000000000000f000000000000000, type: 0}
  m_HaloStrength: 0.5
  m_FlareStrength: 1
  m_FlareFadeSpeed: 3
  m_HaloTexture: {fileID: 0}
  m_SpotCookie: {fileID: 10001, guid: 0000000000000000e000000000000000, type: 0}
  m_DefaultReflectionMode: 0
  m_DefaultReflectionResolution: 128
  m_ReflectionBounces: 1
  m_ReflectionIntensity: 1
  m_CustomReflection: {fileID: 0}
  m_Sun: {fileID: 0}
  m_IndirectSpecularColor: {r: 0, g: 0, b: 0, a: 1}
  m_UseRadianceAmbientProbe: 0
--- !u!157 &3
LightmapSettings:
  m_ObjectHideFlags: 0
  serializedVersion: 12
  m_GIWorkflowMode: 0
  m_GISettings:
    serializedVersion: 2
    m_BounceScale: 1
    m_IndirectOutputScale: 1
    m_AlbedoBoost: 1
    m_EnvironmentLightingMode: 0
    m_EnableBakedLightmaps: 1
    m_EnableRealtimeLightmaps: 1
  m_LightmapEditorSettings:
    serializedVersion: 12
    m_Resolution: 2
    m_BakeResolution: 40
    m_AtlasSize: 1024
    m_AO: 0
    m_AOMaxDistance: 1
    m_CompAOExponent: 0
    m_CompAOExponentDirect: 0
    m_ExtractAmbientOcclusion: 0
    m_Padding: 2
    m_LightmapParameters: {fileID: 0}
    m_LightmapsBakeMode: 1
    m_TextureCompression: 1
    m_FinalGather: 0
    m_FinalGatherFiltering: 1
    m_FinalGatherRayCount: 1024
    m_ReflectionCompression: 2
    m_MixedBakeMode: 1
    m_BakeBackend: 0
    m_PVRSampling: 1
    m_PVRDirectSampleCount: 32
    m_PVRSampleCount: 512
    m_PVRBounces: 2
    m_PVREnvironmentSampleCount: 512
    m_PVREnvironmentReferencePointCount: 2048
    m_PVRFilteringMode: 0
    m_PVRDenoiserTypeDirect: 0
    m_PVRDenoiserTypeIndirect: 0
    m_PVRDenoiserTypeAO: 0
    m_PVRFilterTypeDirect: 0
    m_PVRFilterTypeIndirect: 0
    m_PVRFilterTypeAO: 0
    m_PVREnvironmentMIS: 0
    m_PVRCulling: 1
    m_PVRFilteringGaussRadiusDirect: 1
    m_PVRFilteringGaussRadiusIndirect: 5
    m_PVRFilteringGaussRadiusAO: 2
    m_PVRFilteringAtrousPositionSigmaDirect: 0.5
    m_PVRFilteringAtrousPositionSigmaIndirect: 2
    m_PVRFilteringAtrousPositionSigmaAO: 1
    m_ExportTrainingData: 0
    m_TrainingDataDestination: TrainingData
    m_LightProbeSampleCountMultiplier: 4
  m_LightingDataAsset: {fileID: 0}
  m_LightingSettings: {fileID: 4890085278179872738, guid: 4c420561e7aa48c4294203203f27fc9d, type: 2}
--- !u!196 &4
NavMeshSettings:
  serializedVersion: 2
  m_ObjectHideFlags: 0
  m_BuildSettings:
    serializedVersion: 2
    agentTypeID: 0
    agentRadius: 0.5
    agentHeight: 2
    agentSlope: 45
    agentClimb: 0.4
    ledgeDropHeight: 0
    maxJumpAcrossDistance: 0
    minRegionArea: 2
    manualCellSize: 0
    cellSize: 0.16666667
    manualTileSize: 0
    tileSize: 256
    accuratePlacement: 0
    maxJobWorkers: 0
    preserveTilesOutsideBounds: 0
    debug:
      m_Flags: 0
  m_NavMeshData: {fileID: 0}
--- !u!1 &234288044
GameObject:
  m_ObjectHideFlags: 0
  m_CorrespondingSourceObject: {fileID: 0}
  m_PrefabInstance: {fileID: 0}
  m_PrefabAsset: {fileID: 0}
  serializedVersion: 6
  m_Component:
  - component: {fileID: 234288046}
  - component: {fileID: 234288045}
  m_Layer: 0
  m_Name: Directional light
  m_TagString: Untagged
  m_Icon: {fileID: 0}
  m_NavMeshLayer: 0
  m_StaticEditorFlags: 0
  m_IsActive: 1
--- !u!108 &234288045
Light:
  m_ObjectHideFlags: 0
  m_CorrespondingSourceObject: {fileID: 0}
  m_PrefabInstance: {fileID: 0}
  m_PrefabAsset: {fileID: 0}
  m_GameObject: {fileID: 234288044}
  m_Enabled: 1
  serializedVersion: 10
  m_Type: 1
  m_Shape: 0
  m_Color: {r: 0.48772824, g: 0.61764705, b: 0.34061417, a: 1}
  m_Intensity: 1.5
  m_Range: 10
  m_SpotAngle: 30
  m_InnerSpotAngle: 21.80208
  m_CookieSize: 10
  m_Shadows:
    m_Type: 0
    m_Resolution: -1
    m_CustomResolution: -1
    m_Strength: 1
    m_Bias: 0.05
    m_NormalBias: 0.4
    m_NearPlane: 0.2
    m_CullingMatrixOverride:
      e00: 1
      e01: 0
      e02: 0
      e03: 0
      e10: 0
      e11: 1
      e12: 0
      e13: 0
      e20: 0
      e21: 0
      e22: 1
      e23: 0
      e30: 0
      e31: 0
      e32: 0
      e33: 1
    m_UseCullingMatrixOverride: 0
  m_Cookie: {fileID: 0}
  m_DrawHalo: 0
  m_Flare: {fileID: 0}
  m_RenderMode: 0
  m_CullingMask:
    serializedVersion: 2
    m_Bits: 4294967295
  m_RenderingLayerMask: 1
  m_Lightmapping: 4
  m_LightShadowCasterMode: 0
  m_AreaSize: {x: 1, y: 1}
  m_BounceIntensity: 1
  m_ColorTemperature: 6570
  m_UseColorTemperature: 0
  m_BoundingSphereOverride: {x: 0, y: 0, z: 0, w: 0}
  m_UseBoundingSphereOverride: 0
  m_UseViewFrustumForShadowCasterCull: 1
  m_ShadowRadius: 0
  m_ShadowAngle: 0
--- !u!4 &234288046
Transform:
  m_ObjectHideFlags: 0
  m_CorrespondingSourceObject: {fileID: 0}
  m_PrefabInstance: {fileID: 0}
  m_PrefabAsset: {fileID: 0}
  m_GameObject: {fileID: 234288044}
  m_LocalRotation: {x: 0.2566555, y: -0.7112205, z: 0.013451156, w: 0.65430295}
  m_LocalPosition: {x: 0.1532, y: 0.8722, z: 0.3241}
  m_LocalScale: {x: 1, y: 1.4431883, z: 1}
  m_Children: []
  m_Father: {fileID: 0}
  m_RootOrder: 3
  m_LocalEulerAnglesHint: {x: 0, y: 0, z: 0}
--- !u!1001 &372590793
PrefabInstance:
  m_ObjectHideFlags: 0
  serializedVersion: 2
  m_Modification:
    m_TransformParent: {fileID: 0}
    m_Modifications:
    - target: {fileID: 100000, guid: d6a783aa32db24d46949a6e6598781d0, type: 3}
      propertyPath: m_Name
      value: base (1)
      objectReference: {fileID: 0}
    - target: {fileID: 400000, guid: d6a783aa32db24d46949a6e6598781d0, type: 3}
      propertyPath: m_RootOrder
      value: 6
      objectReference: {fileID: 0}
    - target: {fileID: 400000, guid: d6a783aa32db24d46949a6e6598781d0, type: 3}
      propertyPath: m_LocalScale.x
      value: 4.2243137
      objectReference: {fileID: 0}
    - target: {fileID: 400000, guid: d6a783aa32db24d46949a6e6598781d0, type: 3}
      propertyPath: m_LocalScale.y
      value: -5.5771937
      objectReference: {fileID: 0}
    - target: {fileID: 400000, guid: d6a783aa32db24d46949a6e6598781d0, type: 3}
      propertyPath: m_LocalScale.z
      value: 4.2243147
      objectReference: {fileID: 0}
    - target: {fileID: 400000, guid: d6a783aa32db24d46949a6e6598781d0, type: 3}
      propertyPath: m_LocalPosition.x
      value: 0
      objectReference: {fileID: 0}
    - target: {fileID: 400000, guid: d6a783aa32db24d46949a6e6598781d0, type: 3}
      propertyPath: m_LocalPosition.y
      value: 0.5004
      objectReference: {fileID: 0}
    - target: {fileID: 400000, guid: d6a783aa32db24d46949a6e6598781d0, type: 3}
      propertyPath: m_LocalPosition.z
      value: 0
      objectReference: {fileID: 0}
    - target: {fileID: 400000, guid: d6a783aa32db24d46949a6e6598781d0, type: 3}
      propertyPath: m_LocalRotation.w
      value: 0.7764274
      objectReference: {fileID: 0}
    - target: {fileID: 400000, guid: d6a783aa32db24d46949a6e6598781d0, type: 3}
      propertyPath: m_LocalRotation.x
      value: 0
      objectReference: {fileID: 0}
    - target: {fileID: 400000, guid: d6a783aa32db24d46949a6e6598781d0, type: 3}
      propertyPath: m_LocalRotation.y
      value: 0.63020676
      objectReference: {fileID: 0}
    - target: {fileID: 400000, guid: d6a783aa32db24d46949a6e6598781d0, type: 3}
      propertyPath: m_LocalRotation.z
      value: 0
      objectReference: {fileID: 0}
    m_RemovedComponents: []
  m_SourcePrefab: {fileID: 100100000, guid: d6a783aa32db24d46949a6e6598781d0, type: 3}
--- !u!1001 &664301898
PrefabInstance:
  m_ObjectHideFlags: 0
  serializedVersion: 2
  m_Modification:
    m_TransformParent: {fileID: 0}
    m_Modifications:
    - target: {fileID: 400000, guid: d6a783aa32db24d46949a6e6598781d0, type: 3}
      propertyPath: m_RootOrder
      value: 5
      objectReference: {fileID: 0}
    - target: {fileID: 400000, guid: d6a783aa32db24d46949a6e6598781d0, type: 3}
      propertyPath: m_LocalScale.x
      value: 5
      objectReference: {fileID: 0}
    - target: {fileID: 400000, guid: d6a783aa32db24d46949a6e6598781d0, type: 3}
      propertyPath: m_LocalScale.y
      value: 5
      objectReference: {fileID: 0}
    - target: {fileID: 400000, guid: d6a783aa32db24d46949a6e6598781d0, type: 3}
      propertyPath: m_LocalScale.z
      value: 5
      objectReference: {fileID: 0}
    - target: {fileID: 400000, guid: d6a783aa32db24d46949a6e6598781d0, type: 3}
      propertyPath: m_LocalPosition.x
      value: 0
      objectReference: {fileID: 0}
    - target: {fileID: 400000, guid: d6a783aa32db24d46949a6e6598781d0, type: 3}
      propertyPath: m_LocalPosition.y
      value: -0.0312
      objectReference: {fileID: 0}
    - target: {fileID: 400000, guid: d6a783aa32db24d46949a6e6598781d0, type: 3}
      propertyPath: m_LocalPosition.z
      value: 0
      objectReference: {fileID: 0}
    - target: {fileID: 400000, guid: d6a783aa32db24d46949a6e6598781d0, type: 3}
      propertyPath: m_LocalRotation.w
      value: 0.90439963
      objectReference: {fileID: 0}
    - target: {fileID: 400000, guid: d6a783aa32db24d46949a6e6598781d0, type: 3}
      propertyPath: m_LocalRotation.x
      value: 0
      objectReference: {fileID: 0}
    - target: {fileID: 400000, guid: d6a783aa32db24d46949a6e6598781d0, type: 3}
      propertyPath: m_LocalRotation.y
      value: -0.42668635
      objectReference: {fileID: 0}
    - target: {fileID: 400000, guid: d6a783aa32db24d46949a6e6598781d0, type: 3}
      propertyPath: m_LocalRotation.z
      value: 0
      objectReference: {fileID: 0}
    m_RemovedComponents: []
  m_SourcePrefab: {fileID: 100100000, guid: d6a783aa32db24d46949a6e6598781d0, type: 3}
--- !u!1 &1271001239
GameObject:
  m_ObjectHideFlags: 0
  m_CorrespondingSourceObject: {fileID: 0}
  m_PrefabInstance: {fileID: 0}
  m_PrefabAsset: {fileID: 0}
  serializedVersion: 6
  m_Component:
  - component: {fileID: 1271001243}
  - component: {fileID: 1271001242}
  - component: {fileID: 1271001241}
  - component: {fileID: 1271001240}
  m_Layer: 0
  m_Name: Plane
  m_TagString: Untagged
  m_Icon: {fileID: 0}
  m_NavMeshLayer: 0
  m_StaticEditorFlags: 0
  m_IsActive: 1
--- !u!23 &1271001240
MeshRenderer:
  m_ObjectHideFlags: 0
  m_CorrespondingSourceObject: {fileID: 0}
  m_PrefabInstance: {fileID: 0}
  m_PrefabAsset: {fileID: 0}
  m_GameObject: {fileID: 1271001239}
  m_Enabled: 1
  m_CastShadows: 1
  m_ReceiveShadows: 1
  m_DynamicOccludee: 1
  m_MotionVectors: 1
  m_LightProbeUsage: 1
  m_ReflectionProbeUsage: 1
  m_RayTracingMode: 2
  m_RayTraceProcedural: 0
  m_RenderingLayerMask: 1
  m_RendererPriority: 0
  m_Materials:
  - {fileID: 2100000, guid: 2fef573400300d94c9c2a766c78c7c90, type: 2}
  m_StaticBatchInfo:
    firstSubMesh: 0
    subMeshCount: 0
  m_StaticBatchRoot: {fileID: 0}
  m_ProbeAnchor: {fileID: 0}
  m_LightProbeVolumeOverride: {fileID: 0}
  m_ScaleInLightmap: 1
  m_ReceiveGI: 1
  m_PreserveUVs: 1
  m_IgnoreNormalsForChartDetection: 0
  m_ImportantGI: 0
  m_StitchLightmapSeams: 1
  m_SelectedEditorRenderState: 3
  m_MinimumChartSize: 4
  m_AutoUVMaxDistance: 0.5
  m_AutoUVMaxAngle: 89
  m_LightmapParameters: {fileID: 0}
  m_SortingLayerID: 0
  m_SortingLayer: 0
  m_SortingOrder: 0
  m_AdditionalVertexStreams: {fileID: 0}
--- !u!64 &1271001241
MeshCollider:
  m_ObjectHideFlags: 0
  m_CorrespondingSourceObject: {fileID: 0}
  m_PrefabInstance: {fileID: 0}
  m_PrefabAsset: {fileID: 0}
  m_GameObject: {fileID: 1271001239}
  m_Material: {fileID: 0}
  m_IsTrigger: 0
  m_Enabled: 1
  serializedVersion: 4
  m_Convex: 0
  m_CookingOptions: 30
  m_Mesh: {fileID: 10209, guid: 0000000000000000e000000000000000, type: 0}
--- !u!33 &1271001242
MeshFilter:
  m_ObjectHideFlags: 0
  m_CorrespondingSourceObject: {fileID: 0}
  m_PrefabInstance: {fileID: 0}
  m_PrefabAsset: {fileID: 0}
  m_GameObject: {fileID: 1271001239}
  m_Mesh: {fileID: 10209, guid: 0000000000000000e000000000000000, type: 0}
--- !u!4 &1271001243
Transform:
  m_ObjectHideFlags: 0
  m_CorrespondingSourceObject: {fileID: 0}
  m_PrefabInstance: {fileID: 0}
  m_PrefabAsset: {fileID: 0}
  m_GameObject: {fileID: 1271001239}
  m_LocalRotation: {x: 0, y: 0, z: 0, w: 1}
  m_LocalPosition: {x: 0, y: -0.031, z: 0}
  m_LocalScale: {x: 0.70014507, y: 0.7001438, z: 0.7001438}
  m_Children: []
  m_Father: {fileID: 0}
  m_RootOrder: 4
  m_LocalEulerAnglesHint: {x: 0, y: 0, z: 0}
--- !u!1 &1423789325
GameObject:
  m_ObjectHideFlags: 0
  m_CorrespondingSourceObject: {fileID: 0}
  m_PrefabInstance: {fileID: 0}
  m_PrefabAsset: {fileID: 0}
  serializedVersion: 6
  m_Component:
  - component: {fileID: 1423789327}
  - component: {fileID: 1423789326}
  m_Layer: 0
  m_Name: Directional Light
  m_TagString: Untagged
  m_Icon: {fileID: 0}
  m_NavMeshLayer: 0
  m_StaticEditorFlags: 0
  m_IsActive: 1
--- !u!108 &1423789326
Light:
  m_ObjectHideFlags: 0
  m_CorrespondingSourceObject: {fileID: 0}
  m_PrefabInstance: {fileID: 0}
  m_PrefabAsset: {fileID: 0}
  m_GameObject: {fileID: 1423789325}
  m_Enabled: 1
  serializedVersion: 10
  m_Type: 0
  m_Shape: 0
  m_Color: {r: 1, g: 0.8244261, b: 0.3455882, a: 1}
  m_Intensity: 1.5
  m_Range: 10
  m_SpotAngle: 61
  m_InnerSpotAngle: 45.893276
  m_CookieSize: 10
  m_Shadows:
    m_Type: 2
    m_Resolution: -1
    m_CustomResolution: -1
    m_Strength: 1
    m_Bias: 0.02
    m_NormalBias: 0.87
    m_NearPlane: 1.59
    m_CullingMatrixOverride:
      e00: 1
      e01: 0
      e02: 0
      e03: 0
      e10: 0
      e11: 1
      e12: 0
      e13: 0
      e20: 0
      e21: 0
      e22: 1
      e23: 0
      e30: 0
      e31: 0
      e32: 0
      e33: 1
    m_UseCullingMatrixOverride: 0
  m_Cookie: {fileID: 0}
  m_DrawHalo: 0
  m_Flare: {fileID: 0}
  m_RenderMode: 0
  m_CullingMask:
    serializedVersion: 2
    m_Bits: 4294967295
  m_RenderingLayerMask: 1
  m_Lightmapping: 4
  m_LightShadowCasterMode: 0
  m_AreaSize: {x: 1, y: 1}
  m_BounceIntensity: 1
  m_ColorTemperature: 6570
  m_UseColorTemperature: 0
  m_BoundingSphereOverride: {x: 0, y: 0, z: 0, w: 0}
  m_UseBoundingSphereOverride: 0
  m_UseViewFrustumForShadowCasterCull: 1
  m_ShadowRadius: 0
  m_ShadowAngle: 0
--- !u!4 &1423789327
Transform:
  m_ObjectHideFlags: 0
  m_CorrespondingSourceObject: {fileID: 0}
  m_PrefabInstance: {fileID: 0}
  m_PrefabAsset: {fileID: 0}
  m_GameObject: {fileID: 1423789325}
  m_LocalRotation: {x: 0.7071068, y: 0, z: 0, w: 0.7071067}
  m_LocalPosition: {x: 0, y: 0.655, z: 0}
  m_LocalScale: {x: 1, y: 1, z: 1}
  m_Children: []
  m_Father: {fileID: 0}
  m_RootOrder: 1
  m_LocalEulerAnglesHint: {x: 0, y: 0, z: 0}
--- !u!1 &1673649113
GameObject:
  m_ObjectHideFlags: 0
  m_CorrespondingSourceObject: {fileID: 0}
  m_PrefabInstance: {fileID: 0}
  m_PrefabAsset: {fileID: 0}
  serializedVersion: 6
  m_Component:
  - component: {fileID: 1673649118}
  - component: {fileID: 1673649117}
  - component: {fileID: 1673649115}
  - component: {fileID: 1673649114}
  m_Layer: 0
  m_Name: Main Camera
  m_TagString: MainCamera
  m_Icon: {fileID: 0}
  m_NavMeshLayer: 0
  m_StaticEditorFlags: 0
  m_IsActive: 1
--- !u!81 &1673649114
AudioListener:
  m_ObjectHideFlags: 0
  m_CorrespondingSourceObject: {fileID: 0}
  m_PrefabInstance: {fileID: 0}
  m_PrefabAsset: {fileID: 0}
  m_GameObject: {fileID: 1673649113}
  m_Enabled: 1
--- !u!124 &1673649115
Behaviour:
  m_ObjectHideFlags: 0
  m_CorrespondingSourceObject: {fileID: 0}
  m_PrefabInstance: {fileID: 0}
  m_PrefabAsset: {fileID: 0}
  m_GameObject: {fileID: 1673649113}
  m_Enabled: 1
--- !u!20 &1673649117
Camera:
  m_ObjectHideFlags: 0
  m_CorrespondingSourceObject: {fileID: 0}
  m_PrefabInstance: {fileID: 0}
  m_PrefabAsset: {fileID: 0}
  m_GameObject: {fileID: 1673649113}
  m_Enabled: 1
  serializedVersion: 2
  m_ClearFlags: 2
  m_BackGroundColor: {r: 0.1885813, g: 0.19859116, b: 0.2352941, a: 0.019607844}
  m_projectionMatrixMode: 1
  m_GateFitMode: 2
  m_FOVAxisMode: 0
  m_SensorSize: {x: 36, y: 24}
  m_LensShift: {x: 0, y: 0}
  m_FocalLength: 50
  m_NormalizedViewPortRect:
    serializedVersion: 2
    x: 0
    y: 0
    width: 1
    height: 1
  near clip plane: 0.3
  far clip plane: 1000
  field of view: 60
  orthographic: 0
  orthographic size: 5
  m_Depth: -1
  m_CullingMask:
    serializedVersion: 2
    m_Bits: 4294967295
  m_RenderingPath: -1
  m_TargetTexture: {fileID: 0}
  m_TargetDisplay: 0
  m_TargetEye: 3
  m_HDR: 0
  m_AllowMSAA: 1
  m_AllowDynamicResolution: 0
  m_ForceIntoRT: 0
  m_OcclusionCulling: 1
  m_StereoConvergence: 10
  m_StereoSeparation: 0.022
--- !u!4 &1673649118
Transform:
  m_ObjectHideFlags: 0
  m_CorrespondingSourceObject: {fileID: 0}
  m_PrefabInstance: {fileID: 0}
  m_PrefabAsset: {fileID: 0}
  m_GameObject: {fileID: 1673649113}
  m_LocalRotation: {x: 0.01735347, y: 0.98263025, z: -0.12777674, w: 0.13345334}
  m_LocalPosition: {x: 0.0348, y: 0.3101, z: 0.5698}
  m_LocalScale: {x: 1, y: 1, z: 1}
  m_Children: []
  m_Father: {fileID: 0}
  m_RootOrder: 0
  m_LocalEulerAnglesHint: {x: 0, y: 0, z: 0}
--- !u!1001 &1701678629
PrefabInstance:
  m_ObjectHideFlags: 0
  serializedVersion: 2
  m_Modification:
    m_TransformParent: {fileID: 0}
    m_Modifications:
    - target: {fileID: 400094, guid: 06f05a01414392e42aff17d71b86fb9f, type: 3}
      propertyPath: m_LocalPosition.x
      value: 3.9579653e-17
      objectReference: {fileID: 0}
    - target: {fileID: 400094, guid: 06f05a01414392e42aff17d71b86fb9f, type: 3}
      propertyPath: m_LocalPosition.z
      value: -0.000494753
      objectReference: {fileID: 0}
    - target: {fileID: 400094, guid: 06f05a01414392e42aff17d71b86fb9f, type: 3}
      propertyPath: m_LocalRotation.w
      value: 0.9989731
      objectReference: {fileID: 0}
    - target: {fileID: 400094, guid: 06f05a01414392e42aff17d71b86fb9f, type: 3}
      propertyPath: m_LocalRotation.x
      value: 0.045308094
      objectReference: {fileID: 0}
    - target: {fileID: 400094, guid: 06f05a01414392e42aff17d71b86fb9f, type: 3}
      propertyPath: m_LocalRotation.y
      value: -0
      objectReference: {fileID: 0}
    - target: {fileID: 400094, guid: 06f05a01414392e42aff17d71b86fb9f, type: 3}
      propertyPath: m_LocalRotation.z
      value: 0.0000001788139
      objectReference: {fileID: 0}
    - target: {fileID: 400096, guid: 06f05a01414392e42aff17d71b86fb9f, type: 3}
      propertyPath: m_LocalPosition.x
      value: 0.012657717
      objectReference: {fileID: 0}
    - target: {fileID: 400096, guid: 06f05a01414392e42aff17d71b86fb9f, type: 3}
      propertyPath: m_LocalPosition.y
      value: 0.15365012
      objectReference: {fileID: 0}
    - target: {fileID: 400096, guid: 06f05a01414392e42aff17d71b86fb9f, type: 3}
      propertyPath: m_LocalPosition.z
      value: -0.005103232
      objectReference: {fileID: 0}
    - target: {fileID: 400096, guid: 06f05a01414392e42aff17d71b86fb9f, type: 3}
      propertyPath: m_LocalRotation.w
      value: -0.9967078
      objectReference: {fileID: 0}
    - target: {fileID: 400096, guid: 06f05a01414392e42aff17d71b86fb9f, type: 3}
      propertyPath: m_LocalRotation.x
      value: 0.048092272
      objectReference: {fileID: 0}
    - target: {fileID: 400096, guid: 06f05a01414392e42aff17d71b86fb9f, type: 3}
      propertyPath: m_LocalRotation.y
      value: -0.0012805604
      objectReference: {fileID: 0}
    - target: {fileID: 400096, guid: 06f05a01414392e42aff17d71b86fb9f, type: 3}
      propertyPath: m_LocalRotation.z
      value: 0.06526155
      objectReference: {fileID: 0}
    - target: {fileID: 400098, guid: 06f05a01414392e42aff17d71b86fb9f, type: 3}
      propertyPath: m_LocalPosition.x
      value: -0.010907796
      objectReference: {fileID: 0}
    - target: {fileID: 400098, guid: 06f05a01414392e42aff17d71b86fb9f, type: 3}
      propertyPath: m_LocalPosition.y
      value: -0.0061820024
      objectReference: {fileID: 0}
    - target: {fileID: 400098, guid: 06f05a01414392e42aff17d71b86fb9f, type: 3}
      propertyPath: m_LocalPosition.z
      value: -0.00011816936
      objectReference: {fileID: 0}
    - target: {fileID: 400098, guid: 06f05a01414392e42aff17d71b86fb9f, type: 3}
      propertyPath: m_LocalRotation.w
      value: 0.95265704
      objectReference: {fileID: 0}
    - target: {fileID: 400098, guid: 06f05a01414392e42aff17d71b86fb9f, type: 3}
      propertyPath: m_LocalRotation.x
      value: -0.107312836
      objectReference: {fileID: 0}
    - target: {fileID: 400098, guid: 06f05a01414392e42aff17d71b86fb9f, type: 3}
      propertyPath: m_LocalRotation.y
      value: 0.15494937
      objectReference: {fileID: 0}
    - target: {fileID: 400098, guid: 06f05a01414392e42aff17d71b86fb9f, type: 3}
      propertyPath: m_LocalRotation.z
      value: -0.23857766
      objectReference: {fileID: 0}
    - target: {fileID: 400100, guid: 06f05a01414392e42aff17d71b86fb9f, type: 3}
      propertyPath: m_LocalPosition.x
      value: -0.002528077
      objectReference: {fileID: 0}
    - target: {fileID: 400100, guid: 06f05a01414392e42aff17d71b86fb9f, type: 3}
      propertyPath: m_LocalPosition.z
      value: -0.005341813
      objectReference: {fileID: 0}
    - target: {fileID: 400100, guid: 06f05a01414392e42aff17d71b86fb9f, type: 3}
      propertyPath: m_LocalRotation.w
      value: 0.8485248
      objectReference: {fileID: 0}
    - target: {fileID: 400100, guid: 06f05a01414392e42aff17d71b86fb9f, type: 3}
      propertyPath: m_LocalRotation.x
      value: 0.52811074
      objectReference: {fileID: 0}
    - target: {fileID: 400100, guid: 06f05a01414392e42aff17d71b86fb9f, type: 3}
      propertyPath: m_LocalRotation.y
      value: -0.032647066
      objectReference: {fileID: 0}
    - target: {fileID: 400100, guid: 06f05a01414392e42aff17d71b86fb9f, type: 3}
      propertyPath: m_LocalRotation.z
      value: 0.0062422818
      objectReference: {fileID: 0}
    - target: {fileID: 400102, guid: 06f05a01414392e42aff17d71b86fb9f, type: 3}
      propertyPath: m_LocalPosition.x
      value: -0.04485256
      objectReference: {fileID: 0}
    - target: {fileID: 400102, guid: 06f05a01414392e42aff17d71b86fb9f, type: 3}
      propertyPath: m_LocalPosition.y
      value: -7.003109e-10
      objectReference: {fileID: 0}
    - target: {fileID: 400102, guid: 06f05a01414392e42aff17d71b86fb9f, type: 3}
      propertyPath: m_LocalRotation.w
      value: 0.9986117
      objectReference: {fileID: 0}
    - target: {fileID: 400102, guid: 06f05a01414392e42aff17d71b86fb9f, type: 3}
      propertyPath: m_LocalRotation.x
      value: 0.0067665726
      objectReference: {fileID: 0}
    - target: {fileID: 400102, guid: 06f05a01414392e42aff17d71b86fb9f, type: 3}
      propertyPath: m_LocalRotation.y
      value: -0.03561994
      objectReference: {fileID: 0}
    - target: {fileID: 400102, guid: 06f05a01414392e42aff17d71b86fb9f, type: 3}
      propertyPath: m_LocalRotation.z
      value: 0.038211316
      objectReference: {fileID: 0}
    - target: {fileID: 400104, guid: 06f05a01414392e42aff17d71b86fb9f, type: 3}
      propertyPath: m_LocalPosition.x
      value: -0.038600676
      objectReference: {fileID: 0}
    - target: {fileID: 400104, guid: 06f05a01414392e42aff17d71b86fb9f, type: 3}
      propertyPath: m_LocalPosition.y
      value: 0.000000003318405
      objectReference: {fileID: 0}
    - target: {fileID: 400104, guid: 06f05a01414392e42aff17d71b86fb9f, type: 3}
      propertyPath: m_LocalPosition.z
      value: 0.005030587
      objectReference: {fileID: 0}
    - target: {fileID: 400104, guid: 06f05a01414392e42aff17d71b86fb9f, type: 3}
      propertyPath: m_LocalRotation.w
      value: 0.99234855
      objectReference: {fileID: 0}
    - target: {fileID: 400104, guid: 06f05a01414392e42aff17d71b86fb9f, type: 3}
      propertyPath: m_LocalRotation.x
      value: -0.02543063
      objectReference: {fileID: 0}
    - target: {fileID: 400104, guid: 06f05a01414392e42aff17d71b86fb9f, type: 3}
      propertyPath: m_LocalRotation.y
      value: -0.1136999
      objectReference: {fileID: 0}
    - target: {fileID: 400104, guid: 06f05a01414392e42aff17d71b86fb9f, type: 3}
      propertyPath: m_LocalRotation.z
      value: -0.040865824
      objectReference: {fileID: 0}
    - target: {fileID: 400110, guid: 06f05a01414392e42aff17d71b86fb9f, type: 3}
      propertyPath: m_LocalPosition.x
      value: -0.0013354169
      objectReference: {fileID: 0}
    - target: {fileID: 400110, guid: 06f05a01414392e42aff17d71b86fb9f, type: 3}
      propertyPath: m_LocalPosition.y
      value: -0.060395136
      objectReference: {fileID: 0}
    - target: {fileID: 400110, guid: 06f05a01414392e42aff17d71b86fb9f, type: 3}
      propertyPath: m_LocalRotation.w
      value: 0.99929845
      objectReference: {fileID: 0}
    - target: {fileID: 400110, guid: 06f05a01414392e42aff17d71b86fb9f, type: 3}
      propertyPath: m_LocalRotation.x
      value: 0.034637075
      objectReference: {fileID: 0}
    - target: {fileID: 400110, guid: 06f05a01414392e42aff17d71b86fb9f, type: 3}
      propertyPath: m_LocalRotation.y
      value: -0.0027795618
      objectReference: {fileID: 0}
    - target: {fileID: 400110, guid: 06f05a01414392e42aff17d71b86fb9f, type: 3}
      propertyPath: m_LocalRotation.z
      value: 0.013970082
      objectReference: {fileID: 0}
    - target: {fileID: 400112, guid: 06f05a01414392e42aff17d71b86fb9f, type: 3}
      propertyPath: m_LocalPosition.y
      value: 0.0076506436
      objectReference: {fileID: 0}
    - target: {fileID: 400112, guid: 06f05a01414392e42aff17d71b86fb9f, type: 3}
      propertyPath: m_LocalRotation.w
      value: 0.9966188
      objectReference: {fileID: 0}
    - target: {fileID: 400112, guid: 06f05a01414392e42aff17d71b86fb9f, type: 3}
      propertyPath: m_LocalRotation.x
      value: 0.033339616
      objectReference: {fileID: 0}
    - target: {fileID: 400112, guid: 06f05a01414392e42aff17d71b86fb9f, type: 3}
      propertyPath: m_LocalRotation.y
      value: -0.07456953
      objectReference: {fileID: 0}
    - target: {fileID: 400112, guid: 06f05a01414392e42aff17d71b86fb9f, type: 3}
      propertyPath: m_LocalRotation.z
      value: -0.0088800425
      objectReference: {fileID: 0}
    - target: {fileID: 400114, guid: 06f05a01414392e42aff17d71b86fb9f, type: 3}
      propertyPath: m_LocalPosition.x
      value: -0.00024330802
      objectReference: {fileID: 0}
    - target: {fileID: 400114, guid: 06f05a01414392e42aff17d71b86fb9f, type: 3}
      propertyPath: m_LocalRotation.x
      value: -0
      objectReference: {fileID: 0}
    - target: {fileID: 400114, guid: 06f05a01414392e42aff17d71b86fb9f, type: 3}
      propertyPath: m_LocalRotation.y
      value: -0
      objectReference: {fileID: 0}
    - target: {fileID: 400114, guid: 06f05a01414392e42aff17d71b86fb9f, type: 3}
      propertyPath: m_LocalRotation.z
      value: -0
      objectReference: {fileID: 0}
    - target: {fileID: 400116, guid: 06f05a01414392e42aff17d71b86fb9f, type: 3}
      propertyPath: m_LocalPosition.y
      value: -0.013657108
      objectReference: {fileID: 0}
    - target: {fileID: 400116, guid: 06f05a01414392e42aff17d71b86fb9f, type: 3}
      propertyPath: m_LocalRotation.w
      value: 0.99671805
      objectReference: {fileID: 0}
    - target: {fileID: 400116, guid: 06f05a01414392e42aff17d71b86fb9f, type: 3}
      propertyPath: m_LocalRotation.x
      value: 0.028200641
      objectReference: {fileID: 0}
    - target: {fileID: 400116, guid: 06f05a01414392e42aff17d71b86fb9f, type: 3}
      propertyPath: m_LocalRotation.y
      value: 0.02846113
      objectReference: {fileID: 0}
    - target: {fileID: 400116, guid: 06f05a01414392e42aff17d71b86fb9f, type: 3}
      propertyPath: m_LocalRotation.z
      value: 0.07034175
      objectReference: {fileID: 0}
    - target: {fileID: 400118, guid: 06f05a01414392e42aff17d71b86fb9f, type: 3}
      propertyPath: m_LocalPosition.x
      value: 1.8311401e-17
      objectReference: {fileID: 0}
    - target: {fileID: 400118, guid: 06f05a01414392e42aff17d71b86fb9f, type: 3}
      propertyPath: m_LocalPosition.y
      value: 0.030469492
      objectReference: {fileID: 0}
    - target: {fileID: 400118, guid: 06f05a01414392e42aff17d71b86fb9f, type: 3}
      propertyPath: m_LocalPosition.z
      value: -0.00325137
      objectReference: {fileID: 0}
    - target: {fileID: 400118, guid: 06f05a01414392e42aff17d71b86fb9f, type: 3}
      propertyPath: m_LocalRotation.w
      value: 0.9781927
      objectReference: {fileID: 0}
    - target: {fileID: 400118, guid: 06f05a01414392e42aff17d71b86fb9f, type: 3}
      propertyPath: m_LocalRotation.x
      value: 0.20763727
      objectReference: {fileID: 0}
    - target: {fileID: 400118, guid: 06f05a01414392e42aff17d71b86fb9f, type: 3}
      propertyPath: m_LocalRotation.y
      value: -0.0013175309
      objectReference: {fileID: 0}
    - target: {fileID: 400118, guid: 06f05a01414392e42aff17d71b86fb9f, type: 3}
      propertyPath: m_LocalRotation.z
      value: 0.004913971
      objectReference: {fileID: 0}
    - target: {fileID: 400120, guid: 06f05a01414392e42aff17d71b86fb9f, type: 3}
      propertyPath: m_LocalRotation.x
      value: -0
      objectReference: {fileID: 0}
    - target: {fileID: 400120, guid: 06f05a01414392e42aff17d71b86fb9f, type: 3}
      propertyPath: m_LocalRotation.y
      value: -0
      objectReference: {fileID: 0}
    - target: {fileID: 400120, guid: 06f05a01414392e42aff17d71b86fb9f, type: 3}
      propertyPath: m_LocalRotation.z
      value: -0
      objectReference: {fileID: 0}
    - target: {fileID: 400122, guid: 06f05a01414392e42aff17d71b86fb9f, type: 3}
      propertyPath: m_LocalPosition.x
      value: 0.010907796
      objectReference: {fileID: 0}
    - target: {fileID: 400122, guid: 06f05a01414392e42aff17d71b86fb9f, type: 3}
      propertyPath: m_LocalPosition.y
      value: -0.0061820024
      objectReference: {fileID: 0}
    - target: {fileID: 400122, guid: 06f05a01414392e42aff17d71b86fb9f, type: 3}
      propertyPath: m_LocalPosition.z
      value: -0.00011816936
      objectReference: {fileID: 0}
    - target: {fileID: 400122, guid: 06f05a01414392e42aff17d71b86fb9f, type: 3}
      propertyPath: m_LocalRotation.w
      value: 0.95217335
      objectReference: {fileID: 0}
    - target: {fileID: 400122, guid: 06f05a01414392e42aff17d71b86fb9f, type: 3}
      propertyPath: m_LocalRotation.x
      value: -0.084887475
      objectReference: {fileID: 0}
    - target: {fileID: 400122, guid: 06f05a01414392e42aff17d71b86fb9f, type: 3}
      propertyPath: m_LocalRotation.y
      value: -0.15341412
      objectReference: {fileID: 0}
    - target: {fileID: 400122, guid: 06f05a01414392e42aff17d71b86fb9f, type: 3}
      propertyPath: m_LocalRotation.z
      value: 0.25024813
      objectReference: {fileID: 0}
    - target: {fileID: 400124, guid: 06f05a01414392e42aff17d71b86fb9f, type: 3}
      propertyPath: m_LocalPosition.x
      value: 0.002528077
      objectReference: {fileID: 0}
    - target: {fileID: 400124, guid: 06f05a01414392e42aff17d71b86fb9f, type: 3}
      propertyPath: m_LocalPosition.z
      value: -0.005341813
      objectReference: {fileID: 0}
    - target: {fileID: 400124, guid: 06f05a01414392e42aff17d71b86fb9f, type: 3}
      propertyPath: m_LocalRotation.w
      value: 0.98736817
      objectReference: {fileID: 0}
    - target: {fileID: 400124, guid: 06f05a01414392e42aff17d71b86fb9f, type: 3}
      propertyPath: m_LocalRotation.x
      value: 0.13436155
      objectReference: {fileID: 0}
    - target: {fileID: 400124, guid: 06f05a01414392e42aff17d71b86fb9f, type: 3}
      propertyPath: m_LocalRotation.y
      value: -0.027233757
      objectReference: {fileID: 0}
    - target: {fileID: 400124, guid: 06f05a01414392e42aff17d71b86fb9f, type: 3}
      propertyPath: m_LocalRotation.z
      value: 0.07943225
      objectReference: {fileID: 0}
    - target: {fileID: 400126, guid: 06f05a01414392e42aff17d71b86fb9f, type: 3}
      propertyPath: m_LocalPosition.x
      value: 0.04485256
      objectReference: {fileID: 0}
    - target: {fileID: 400126, guid: 06f05a01414392e42aff17d71b86fb9f, type: 3}
      propertyPath: m_LocalPosition.y
      value: -7.003109e-10
      objectReference: {fileID: 0}
    - target: {fileID: 400126, guid: 06f05a01414392e42aff17d71b86fb9f, type: 3}
      propertyPath: m_LocalRotation.w
      value: 0.9977284
      objectReference: {fileID: 0}
    - target: {fileID: 400126, guid: 06f05a01414392e42aff17d71b86fb9f, type: 3}
      propertyPath: m_LocalRotation.x
      value: 0.032188237
      objectReference: {fileID: 0}
    - target: {fileID: 400126, guid: 06f05a01414392e42aff17d71b86fb9f, type: 3}
      propertyPath: m_LocalRotation.y
      value: 0.04498571
      objectReference: {fileID: 0}
    - target: {fileID: 400126, guid: 06f05a01414392e42aff17d71b86fb9f, type: 3}
      propertyPath: m_LocalRotation.z
      value: -0.038447917
      objectReference: {fileID: 0}
    - target: {fileID: 400128, guid: 06f05a01414392e42aff17d71b86fb9f, type: 3}
      propertyPath: m_LocalPosition.x
      value: 0.038600676
      objectReference: {fileID: 0}
    - target: {fileID: 400128, guid: 06f05a01414392e42aff17d71b86fb9f, type: 3}
      propertyPath: m_LocalPosition.y
      value: 0.000000003318405
      objectReference: {fileID: 0}
    - target: {fileID: 400128, guid: 06f05a01414392e42aff17d71b86fb9f, type: 3}
      propertyPath: m_LocalPosition.z
      value: 0.005030587
      objectReference: {fileID: 0}
    - target: {fileID: 400128, guid: 06f05a01414392e42aff17d71b86fb9f, type: 3}
      propertyPath: m_LocalRotation.w
      value: 0.9700416
      objectReference: {fileID: 0}
    - target: {fileID: 400128, guid: 06f05a01414392e42aff17d71b86fb9f, type: 3}
      propertyPath: m_LocalRotation.x
      value: -0.048984006
      objectReference: {fileID: 0}
    - target: {fileID: 400128, guid: 06f05a01414392e42aff17d71b86fb9f, type: 3}
      propertyPath: m_LocalRotation.y
      value: 0.12306768
      objectReference: {fileID: 0}
    - target: {fileID: 400128, guid: 06f05a01414392e42aff17d71b86fb9f, type: 3}
      propertyPath: m_LocalRotation.z
      value: 0.20365249
      objectReference: {fileID: 0}
    - target: {fileID: 400134, guid: 06f05a01414392e42aff17d71b86fb9f, type: 3}
      propertyPath: m_LocalPosition.x
      value: 0.0013354169
      objectReference: {fileID: 0}
    - target: {fileID: 400134, guid: 06f05a01414392e42aff17d71b86fb9f, type: 3}
      propertyPath: m_LocalPosition.y
      value: -0.060395136
      objectReference: {fileID: 0}
    - target: {fileID: 400134, guid: 06f05a01414392e42aff17d71b86fb9f, type: 3}
      propertyPath: m_LocalRotation.w
      value: 0.40588248
      objectReference: {fileID: 0}
    - target: {fileID: 400134, guid: 06f05a01414392e42aff17d71b86fb9f, type: 3}
      propertyPath: m_LocalRotation.x
      value: 0.9137278
      objectReference: {fileID: 0}
    - target: {fileID: 400134, guid: 06f05a01414392e42aff17d71b86fb9f, type: 3}
      propertyPath: m_LocalRotation.y
      value: 0.0073535996
      objectReference: {fileID: 0}
    - target: {fileID: 400134, guid: 06f05a01414392e42aff17d71b86fb9f, type: 3}
      propertyPath: m_LocalRotation.z
      value: -0.017517945
      objectReference: {fileID: 0}
    - target: {fileID: 400136, guid: 06f05a01414392e42aff17d71b86fb9f, type: 3}
      propertyPath: m_LocalPosition.y
      value: 0.0076506436
      objectReference: {fileID: 0}
    - target: {fileID: 400136, guid: 06f05a01414392e42aff17d71b86fb9f, type: 3}
      propertyPath: m_LocalRotation.w
      value: 0.9968223
      objectReference: {fileID: 0}
    - target: {fileID: 400136, guid: 06f05a01414392e42aff17d71b86fb9f, type: 3}
      propertyPath: m_LocalRotation.x
      value: 0.031732224
      objectReference: {fileID: 0}
    - target: {fileID: 400136, guid: 06f05a01414392e42aff17d71b86fb9f, type: 3}
      propertyPath: m_LocalRotation.y
      value: 0.07079014
      objectReference: {fileID: 0}
    - target: {fileID: 400136, guid: 06f05a01414392e42aff17d71b86fb9f, type: 3}
      propertyPath: m_LocalRotation.z
      value: 0.018087387
      objectReference: {fileID: 0}
    - target: {fileID: 400138, guid: 06f05a01414392e42aff17d71b86fb9f, type: 3}
      propertyPath: m_LocalPosition.x
      value: 0.00024330802
      objectReference: {fileID: 0}
    - target: {fileID: 400138, guid: 06f05a01414392e42aff17d71b86fb9f, type: 3}
      propertyPath: m_LocalRotation.x
      value: -0
      objectReference: {fileID: 0}
    - target: {fileID: 400138, guid: 06f05a01414392e42aff17d71b86fb9f, type: 3}
      propertyPath: m_LocalRotation.y
      value: -0
      objectReference: {fileID: 0}
    - target: {fileID: 400138, guid: 06f05a01414392e42aff17d71b86fb9f, type: 3}
      propertyPath: m_LocalRotation.z
      value: -0
      objectReference: {fileID: 0}
    - target: {fileID: 400140, guid: 06f05a01414392e42aff17d71b86fb9f, type: 3}
      propertyPath: m_LocalPosition.y
      value: -0.013657108
      objectReference: {fileID: 0}
    - target: {fileID: 400140, guid: 06f05a01414392e42aff17d71b86fb9f, type: 3}
      propertyPath: m_LocalRotation.w
      value: 0.6653045
      objectReference: {fileID: 0}
    - target: {fileID: 400140, guid: 06f05a01414392e42aff17d71b86fb9f, type: 3}
      propertyPath: m_LocalRotation.x
      value: -0.7416029
      objectReference: {fileID: 0}
    - target: {fileID: 400140, guid: 06f05a01414392e42aff17d71b86fb9f, type: 3}
      propertyPath: m_LocalRotation.y
      value: 0.017697144
      objectReference: {fileID: 0}
    - target: {fileID: 400140, guid: 06f05a01414392e42aff17d71b86fb9f, type: 3}
      propertyPath: m_LocalRotation.z
      value: 0.08415484
      objectReference: {fileID: 0}
    - target: {fileID: 400142, guid: 06f05a01414392e42aff17d71b86fb9f, type: 3}
      propertyPath: m_LocalPosition.y
      value: 0.015309989
      objectReference: {fileID: 0}
    - target: {fileID: 400142, guid: 06f05a01414392e42aff17d71b86fb9f, type: 3}
      propertyPath: m_LocalRotation.w
      value: 0.9987196
      objectReference: {fileID: 0}
    - target: {fileID: 400142, guid: 06f05a01414392e42aff17d71b86fb9f, type: 3}
      propertyPath: m_LocalRotation.x
      value: -0.0085074585
      objectReference: {fileID: 0}
    - target: {fileID: 400142, guid: 06f05a01414392e42aff17d71b86fb9f, type: 3}
      propertyPath: m_LocalRotation.y
      value: -0.0008264182
      objectReference: {fileID: 0}
    - target: {fileID: 400142, guid: 06f05a01414392e42aff17d71b86fb9f, type: 3}
      propertyPath: m_LocalRotation.z
      value: 0.049861807
      objectReference: {fileID: 0}
    - target: {fileID: 400144, guid: 06f05a01414392e42aff17d71b86fb9f, type: 3}
      propertyPath: m_LocalPosition.y
      value: 0.030469507
      objectReference: {fileID: 0}
    - target: {fileID: 400144, guid: 06f05a01414392e42aff17d71b86fb9f, type: 3}
      propertyPath: m_LocalRotation.w
      value: 0.9866021
      objectReference: {fileID: 0}
    - target: {fileID: 400144, guid: 06f05a01414392e42aff17d71b86fb9f, type: 3}
      propertyPath: m_LocalRotation.x
      value: 0.16307199
      objectReference: {fileID: 0}
    - target: {fileID: 400144, guid: 06f05a01414392e42aff17d71b86fb9f, type: 3}
      propertyPath: m_LocalRotation.y
      value: 0.0006487071
      objectReference: {fileID: 0}
    - target: {fileID: 400144, guid: 06f05a01414392e42aff17d71b86fb9f, type: 3}
      propertyPath: m_LocalRotation.z
      value: 0.004834547
      objectReference: {fileID: 0}
    - target: {fileID: 400146, guid: 06f05a01414392e42aff17d71b86fb9f, type: 3}
      propertyPath: m_LocalPosition.x
      value: 6.1705854e-18
      objectReference: {fileID: 0}
    - target: {fileID: 400146, guid: 06f05a01414392e42aff17d71b86fb9f, type: 3}
      propertyPath: m_LocalPosition.y
      value: 0.030469507
      objectReference: {fileID: 0}
    - target: {fileID: 400146, guid: 06f05a01414392e42aff17d71b86fb9f, type: 3}
      propertyPath: m_LocalRotation.x
      value: -0
      objectReference: {fileID: 0}
    - target: {fileID: 400146, guid: 06f05a01414392e42aff17d71b86fb9f, type: 3}
      propertyPath: m_LocalRotation.y
      value: -0
      objectReference: {fileID: 0}
    - target: {fileID: 400146, guid: 06f05a01414392e42aff17d71b86fb9f, type: 3}
      propertyPath: m_LocalRotation.z
      value: -0
      objectReference: {fileID: 0}
    - target: {fileID: 400148, guid: 06f05a01414392e42aff17d71b86fb9f, type: 3}
      propertyPath: m_RootOrder
      value: 2
      objectReference: {fileID: 0}
    - target: {fileID: 400148, guid: 06f05a01414392e42aff17d71b86fb9f, type: 3}
      propertyPath: m_LocalPosition.x
      value: 0
      objectReference: {fileID: 0}
    - target: {fileID: 400148, guid: 06f05a01414392e42aff17d71b86fb9f, type: 3}
      propertyPath: m_LocalPosition.y
      value: 0.031
      objectReference: {fileID: 0}
    - target: {fileID: 400148, guid: 06f05a01414392e42aff17d71b86fb9f, type: 3}
      propertyPath: m_LocalPosition.z
      value: 0
      objectReference: {fileID: 0}
    - target: {fileID: 400148, guid: 06f05a01414392e42aff17d71b86fb9f, type: 3}
      propertyPath: m_LocalRotation.w
      value: 1
      objectReference: {fileID: 0}
    - target: {fileID: 400148, guid: 06f05a01414392e42aff17d71b86fb9f, type: 3}
      propertyPath: m_LocalRotation.x
      value: 0
      objectReference: {fileID: 0}
    - target: {fileID: 400148, guid: 06f05a01414392e42aff17d71b86fb9f, type: 3}
      propertyPath: m_LocalRotation.y
      value: 0
      objectReference: {fileID: 0}
    - target: {fileID: 400148, guid: 06f05a01414392e42aff17d71b86fb9f, type: 3}
      propertyPath: m_LocalRotation.z
      value: 0
      objectReference: {fileID: 0}
    - target: {fileID: 9500000, guid: 06f05a01414392e42aff17d71b86fb9f, type: 3}
      propertyPath: m_Controller
      value: 
      objectReference: {fileID: 9100000, guid: 4adf93dd6841b824c9f38d5ff66c2d99, type: 2}
    - target: {fileID: 13700000, guid: 06f05a01414392e42aff17d71b86fb9f, type: 3}
      propertyPath: m_Materials.Array.data[0]
      value: 
      objectReference: {fileID: 2100000, guid: 982b893ff4c1c284cbccd94dd756555a, type: 2}
    - target: {fileID: 13700002, guid: 06f05a01414392e42aff17d71b86fb9f, type: 3}
      propertyPath: m_Materials.Array.data[0]
      value: 
      objectReference: {fileID: 2100000, guid: 8b042f2ee23e6034688e67073a06576a, type: 2}
    m_RemovedComponents: []
  m_SourcePrefab: {fileID: 100100000, guid: 06f05a01414392e42aff17d71b86fb9f, type: 3}
