%YAML 1.1
%TAG !u! tag:unity3d.com,2011:
--- !u!162 &1
EditorUserSettings:
  m_ObjectHideFlags: 0
  serializedVersion: 4
  m_ConfigSettings:
    RecentlyUsedScenePath-0:
      value: 22424703114646680e0b0227036c6c111b07142f1f2b233e2867083debf42d
      flags: 0
    RecentlyUsedScenePath-1:
      value: 22424703114646680c0018371131465f25141d24293b69032c271e27f7e12621acf238e0f323
      flags: 0
    RecentlyUsedScenePath-2:
      value: 22424703114646680e07410419636c040f1b1d2e6c05293438251c21a2d0353be9a813f1e6372f303c42fc3f0130042cbd051c1fe604191f5101f34e15fa031603d156d014c10b05
      flags: 0
    RecentlyUsedScenePath-3:
      value: 22424703114646680e070a2b3f25591915123423382d69032e2c1336adc43135eda923e7ee2e26
      flags: 0
    RecentlyUsedScenePath-4:
      value: 22424703114646680e07410419636c040f1b1d2e6c05293438251c21a2d0353be9a813f1e6372f303c42fc3f0130042cbd051c1fe604191f5119f41a19bf031d1ed256d014c10b05
      flags: 0
    RecentlyUsedScenePath-5:
      value: 22424703114646680e074c041963721f1202142b3e6816312e225200e1e53a3df1a812ecea357f6d7752af1a163b0471e704001fef
      flags: 0
    RecentlyUsedScenePath-3:
      value: 22424703114646642e1c0927003a6033170357157f0c66032e201b3aa2cb3d2ca2d422e8f52e3a2e7929e6284b1b193eff1a050ec95b5b450400f41a08
      flags: 0
    RecentlyUsedScenePath-4:
      value: 22424703114646642f0f1e29192d582f32181f657f0c66163f2c1873cfef302deee624a9cc332b730d07fc283b13002fbc1f0702e212
      flags: 0
    RecentlyUsedScenePath-5:
      value: 22424703114646680e0b0227036c6b150503563f22213229
      flags: 0
    vcSharedLogLevel:
      value: 0d5e400f0650
      flags: 0
  m_VCAutomaticAdd: 1
  m_VCDebugCom: 0
  m_VCDebugCmd: 0
  m_VCDebugOut: 0
  m_SemanticMergeMode: 2
  m_VCShowFailedCheckout: 1
  m_VCOverwriteFailedCheckoutAssets: 1
  m_VCProjectOverlayIcons: 1
  m_VCHierarchyOverlayIcons: 1
  m_VCOtherOverlayIcons: 1
  m_VCAllowAsyncUpdate: 1
